<define-tag pagetitle>DSA-4809-1 python-apt</define-tag>
<define-tag report_date>2020-12-09</define-tag>
<define-tag secrefs>CVE-2020-27351</define-tag>
<define-tag packages>python-apt</define-tag>
<define-tag isvulnerable>yes</define-tag>
<define-tag fixed>yes</define-tag>
<define-tag fixed-section>no</define-tag>

#use wml::debian::security



</dl>
