<define-tag pagetitle>DSA-4731-1 redis</define-tag>
<define-tag report_date>2020-7-19</define-tag>
<define-tag secrefs>CVE-2020-14147</define-tag>
<define-tag packages>redis</define-tag>
<define-tag isvulnerable>yes</define-tag>
<define-tag fixed>yes</define-tag>
<define-tag fixed-section>no</define-tag>

#use wml::debian::security



</dl>
