<define-tag pagetitle>DLA-2579-1 spip</define-tag>
<define-tag report_date>2021-03-03</define-tag>
<define-tag packages>spip</define-tag>
<define-tag isvulnerable>yes</define-tag>
<define-tag fixed>yes</define-tag>
<define-tag fixed-section>no</define-tag>

#use wml::debian::security

