<define-tag pagetitle>DLA-2614-1 busybox</define-tag>
<define-tag report_date>2021-4-01</define-tag>
<define-tag secrefs>CVE-2021-28831 Bug#986217</define-tag>
<define-tag packages>busybox</define-tag>
<define-tag isvulnerable>yes</define-tag>
<define-tag fixed>yes</define-tag>
<define-tag fixed-section>no</define-tag>

#use wml::debian::security

