<define-tag pagetitle>DLA-2615-1 spamassassin</define-tag>
<define-tag report_date>2021-04-02</define-tag>
<define-tag secrefs>CVE-2020-1946 Bug#985962</define-tag>
<define-tag packages>spamassassin</define-tag>
<define-tag isvulnerable>yes</define-tag>
<define-tag fixed>yes</define-tag>
<define-tag fixed-section>no</define-tag>

#use wml::debian::security

