<define-tag pagetitle>DLA-797-1 mysql-5.5</define-tag>
<define-tag report_date>2017-1-25</define-tag>
<define-tag secrefs>CVE-2017-3238 CVE-2017-3243 CVE-2017-3244 CVE-2017-3258 CVE-2017-3265 CVE-2017-3291 CVE-2017-3312 CVE-2017-3313 CVE-2017-3317 CVE-2017-3318 Bug#851233</define-tag>
<define-tag packages>mysql-5.5</define-tag>
<define-tag isvulnerable>yes</define-tag>
<define-tag fixed>yes</define-tag>
<define-tag fixed-section>no</define-tag>

#use wml::debian::security

