<define-tag pagetitle>DLA-814-1 openssl</define-tag>
<define-tag report_date>2017-2-1</define-tag>
<define-tag secrefs>CVE-2016-7056 CVE-2016-8610 CVE-2017-3731</define-tag>
<define-tag packages>openssl</define-tag>
<define-tag isvulnerable>yes</define-tag>
<define-tag fixed>yes</define-tag>
<define-tag fixed-section>no</define-tag>

#use wml::debian::security

