<define-tag pagetitle>DLA-2149-1 rails</define-tag>
<define-tag report_date>2020-03-20</define-tag>
<define-tag secrefs>CVE-2020-5267 Bug#954304</define-tag>
<define-tag packages>rails</define-tag>
<define-tag isvulnerable>yes</define-tag>
<define-tag fixed>yes</define-tag>
<define-tag fixed-section>no</define-tag>

#use wml::debian::security

