<define-tag pagetitle>DLA-2120-1 rake</define-tag>
<define-tag report_date>2020-02-26</define-tag>
<define-tag secrefs>CVE-2020-8130</define-tag>
<define-tag packages>rake</define-tag>
<define-tag isvulnerable>yes</define-tag>
<define-tag fixed>yes</define-tag>
<define-tag fixed-section>no</define-tag>

#use wml::debian::security

