<define-tag pagetitle>DLA-1910-1 firefox-esr</define-tag>
<define-tag report_date>2019-09-06</define-tag>
<define-tag secrefs>CVE-2019-9812 CVE-2019-11740 CVE-2019-11742 CVE-2019-11743 CVE-2019-11744 CVE-2019-11746 CVE-2019-11752</define-tag>
<define-tag packages>firefox-esr</define-tag>
<define-tag isvulnerable>yes</define-tag>
<define-tag fixed>yes</define-tag>
<define-tag fixed-section>no</define-tag>

#use wml::debian::security

