<define-tag pagetitle>DLA-1730-4 libssh2</define-tag>
<define-tag report_date>2019-07-30</define-tag>
<define-tag secrefs>CVE-2019-3860</define-tag>
<define-tag packages>libssh2</define-tag>
<define-tag isvulnerable>yes</define-tag>
<define-tag fixed>yes</define-tag>
<define-tag fixed-section>no</define-tag>

#use wml::debian::security

