<define-tag pagetitle>DLA-1665-1 netmask</define-tag>
<define-tag report_date>2019-2-6</define-tag>
<define-tag secrefs>Bug#921565</define-tag>
<define-tag packages>netmask</define-tag>
<define-tag isvulnerable>yes</define-tag>
<define-tag fixed>yes</define-tag>
<define-tag fixed-section>no</define-tag>

#use wml::debian::security

